/home/loureiro/Desktop/Tese/Code/pcbroadcast/src/main/java/Membership.Hyparview/Handlers/HPVDecoder.java
/home/loureiro/Desktop/Tese/Code/pcbroadcast/src/main/java/Membership.Messages/Message.java
/home/loureiro/Desktop/Tese/Code/pcbroadcast/src/main/java/Membership.Messages/Shuffle.java
/home/loureiro/Desktop/Tese/Code/pcbroadcast/src/main/java/Membership.Messages/NeighbourReject.java
/home/loureiro/Desktop/Tese/Code/pcbroadcast/src/main/java/Membership.Messages/Disconnect.java
/home/loureiro/Desktop/Tese/Code/pcbroadcast/src/main/java/Membership.Messages/NeighbourRequest.java
/home/loureiro/Desktop/Tese/Code/pcbroadcast/src/main/java/Membership.Messages/FowardJoin.java
/home/loureiro/Desktop/Tese/Code/pcbroadcast/src/main/java/Membership.Hyparview/Handlers/HPVEncoder.java
/home/loureiro/Desktop/Tese/Code/pcbroadcast/src/main/java/Membership.Hyparview/Membership.Hyparview.java
/home/loureiro/Desktop/Tese/Code/pcbroadcast/src/main/java/Membership.Messages/Ping.java
/home/loureiro/Desktop/Tese/Code/pcbroadcast/src/main/java/Membership.Messages/ShuffleReply.java
/home/loureiro/Desktop/Tese/Code/pcbroadcast/src/main/java/Membership.Messages/NeighbourAccept.java
/home/loureiro/Desktop/Tese/Code/pcbroadcast/src/main/java/Membership.Hyparview/Handlers/HPVHandler.java
/home/loureiro/Desktop/Tese/Code/pcbroadcast/src/main/java/Membership.Messages/DisconnectIdle.java
/home/loureiro/Desktop/Tese/Code/pcbroadcast/src/main/java/API.APIclass.java
/home/loureiro/Desktop/Tese/Code/pcbroadcast/src/main/java/Membership.Messages/Join.java
/home/loureiro/Desktop/Tese/Code/pcbroadcast/src/main/java/Membership.Messages/MessageReceived.java
